{
  "project_info": {
    "project_number": "803449415129",
    "firebase_url": "https://flash-chat-ef209.firebaseio.com",
    "project_id": "flash-chat-ef209",
    "storage_bucket": "flash-chat-ef209.appspot.com"
  },
  "client": [
    {
      "client_info": {
        "mobilesdk_app_id": "1:803449415129:android:b4d062854e124c53dee5c8",
        "android_client_info": {
          "package_name": "co.ArtemSobolev.flash_chat"
        }
      },
      "oauth_client": [
        {
          "client_id": "803449415129-47u7s5odiuvape0p5sas4up13vnoijps.apps.googleusercontent.com",
          "client_type": 3
        }
      ],
      "api_key": [
        {
          "current_key": "AIzaSyBbVFvd8NRbcXQBwry_J6NPzYLz4dzh_NU"
        }
      ],
      "services": {
        "appinvite_service": {
          "other_platform_oauth_client": [
            {
              "client_id": "803449415129-47u7s5odiuvape0p5sas4up13vnoijps.apps.googleusercontent.com",
              "client_type": 3
            }
          ]
        }
      }
    }
  ],
  "configuration_version": "1"
}